fft_systemC/trace.vcd
$date
     Feb 18, 2020       10:41:15
$end

$version
 SystemC 2.3.3-Accellera --- Jul  2 2019 15:18:47
$end

$timescale
     1 ns
$end

$scope module SystemC $end
$var wire    1  aaaaa  clk       $end
$var wire    1  aaaab  enable       $end
$scope module fft $end
$var real    1  aaaac  fifo_in_0       $end
$var real    1  aaaad  fifo_in_1       $end
$var real    1  aaaae  fifo_in_2       $end
$var real    1  aaaaf  fifo_in_3       $end
$var real    1  aaaag  fifo_in_4       $end
$var real    1  aaaah  fifo_in_5       $end
$var real    1  aaaai  fifo_in_6       $end
$var real    1  aaaaj  fifo_in_7       $end
$var real    1  aaaak  fifo_in_8       $end
$var real    1  aaaal  fifo_in_9       $end
$var real    1  aaaam  fifo_in_10       $end
$var real    1  aaaan  fifo_in_11       $end
$var real    1  aaaao  fifo_in_12       $end
$var real    1  aaaap  fifo_in_13       $end
$var real    1  aaaaq  fifo_in_14       $end
$var real    1  aaaar  fifo_in_15       $end
$var real    1  aaaas  fifo_out_0       $end
$var real    1  aaaat  fifo_out_1       $end
$var real    1  aaaau  fifo_out_2       $end
$var real    1  aaaav  fifo_out_3       $end
$var real    1  aaaaw  fifo_out_4       $end
$var real    1  aaaax  fifo_out_5       $end
$var real    1  aaaay  fifo_out_6       $end
$var real    1  aaaaz  fifo_out_7       $end
$var real    1  aaaba  fifo_out_8       $end
$var real    1  aaabb  fifo_out_9       $end
$var real    1  aaabc  fifo_out_10       $end
$var real    1  aaabd  fifo_out_11       $end
$var real    1  aaabe  fifo_out_12       $end
$var real    1  aaabf  fifo_out_13       $end
$var real    1  aaabg  fifo_out_14       $end
$var real    1  aaabh  fifo_out_15       $end
$upscope $end
$upscope $end
$enddefinitions  $end

$comment
All initial values are dumped below at time 0 sec = 0 timescale units.
$end

$dumpvars
0aaaaa
0aaaab
r0 aaaac
r0 aaaad
r6.594295324105558e+22 aaaae
r7.555081327053433e+31 aaaaf
r3.559244355763391e-17 aaaag
r1.832023514993055e+25 aaaah
r6.593495034451775e+22 aaaai
r7.555081327053433e+31 aaaaj
r91.193359375 aaaak
r3.073748181496486e-41 aaaal
r91.21234130859375 aaaam
r3.073748181496486e-41 aaaan
r91.2137451171875 aaaao
r3.073748181496486e-41 aaaap
r91.23211669921875 aaaaq
r3.073748181496486e-41 aaaar
r0 aaaas
r0 aaaat
r6.594295324105558e+22 aaaau
r7.555081327053433e+31 aaaav
r3.559244355763391e-17 aaaaw
r1.832023514993055e+25 aaaax
r6.593495034451775e+22 aaaay
r7.555081327053433e+31 aaaaz
r0 aaaba
r0 aaabb
r0 aaabc
r0 aaabd
r0 aaabe
r0 aaabf
r0 aaabg
r0 aaabh
$end

#10
1aaaaa
r2011 aaaac
r2011 aaaad
r2011 aaaae
r2011 aaaaf
r2011 aaaag
r2011 aaaah
r2011 aaaai
r2011 aaaaj
r2011 aaaak
r2011 aaaal
r2011 aaaam
r2011 aaaan
r2011 aaaao
r2011 aaaap
r2011 aaaaq
r2011 aaaar

#15
0aaaaa

#20
1aaaaa
1aaaab
r0 aaaac
r0 aaaad
r0 aaaae
r0 aaaaf
r0 aaaag
r0 aaaah
r0 aaaai
r0 aaaaj
r0 aaaak
r0 aaaal
r0 aaaam
r0 aaaan
r0 aaaao
r0 aaaap
r0 aaaaq
r0 aaaar
r2011 aaaas
r2011 aaaat
r2011 aaaau
r2011 aaaav
r2011 aaaaw
r2011 aaaax
r2011 aaaay
r2011 aaaaz
r2011 aaaba
r2011 aaabb
r2011 aaabc
r2011 aaabd
r2011 aaabe
r2011 aaabf
r2011 aaabg
r2011 aaabh

#25
0aaaaa

#30
1aaaaa
r1 aaaac
r1 aaaad
r0 aaaas
r0 aaaat
r0 aaaau
r0 aaaav
r0 aaaaw
r0 aaaax
r0 aaaay
r0 aaaaz
r0 aaaba
r0 aaabb
r0 aaabc
r0 aaabd
r0 aaabe
r0 aaabf
r0 aaabg
r0 aaabh

#35
0aaaaa

#40
1aaaaa
r0 aaaac
r0 aaaad
r1 aaaas
r1 aaaat

#45
0aaaaa

#50
1aaaaa
r456 aaaad
r120 aaaae
r234 aaaaf
r234 aaaag
r120 aaaah
r120 aaaai
r-120 aaaal
r-120 aaaam
r-234 aaaan
r-234 aaaao
r-456 aaaap
r-120 aaaaq
r-768 aaaar
r0 aaaas
r0 aaaat

#55
0aaaaa

#60
1aaaaa
r0 aaaad
r0 aaaae
r0 aaaaf
r0 aaaag
r0 aaaah
r0 aaaai
r0 aaaal
r0 aaaam
r0 aaaan
r0 aaaao
r0 aaaap
r0 aaaaq
r0 aaaar
r456 aaaat
r120 aaaau
r234 aaaav
r234 aaaaw
r120 aaaax
r120 aaaay
r-120 aaabb
r-120 aaabc
r-234 aaabd
r-234 aaabe
r-456 aaabf
r-120 aaabg
r-768 aaabh

#65
0aaaaa

#70
1aaaaa
r123 aaaac
r29 aaaad
r34 aaaae
r34 aaaaf
r-23 aaaag
r85 aaaah
r12 aaaai
r206 aaaaj
r45 aaaak
r336 aaaal
r593 aaaan
r67 aaaao
r823 aaaap
r134 aaaaq
r422 aaaar
r0 aaaat
r0 aaaau
r0 aaaav
r0 aaaaw
r0 aaaax
r0 aaaay
r0 aaabb
r0 aaabc
r0 aaabd
r0 aaabe
r0 aaabf
r0 aaabg
r0 aaabh

#75
0aaaaa

#80
1aaaaa
r0 aaaac
r0 aaaad
r0 aaaae
r0 aaaaf
r0 aaaag
r0 aaaah
r0 aaaai
r0 aaaaj
r0 aaaak
r0 aaaal
r0 aaaan
r0 aaaao
r0 aaaap
r0 aaaaq
r0 aaaar
r123 aaaas
r29 aaaat
r34 aaaau
r34 aaaav
r-23 aaaaw
r85 aaaax
r12 aaaay
r206 aaaaz
r45 aaaba
r336 aaabb
r593 aaabd
r67 aaabe
r823 aaabf
r134 aaabg
r422 aaabh

#85
0aaaaa

#90
1aaaaa
r404 aaaac
r404 aaaad
r404 aaaae
r404 aaaaf
r0 aaaas
r0 aaaat
r0 aaaau
r0 aaaav
r0 aaaaw
r0 aaaax
r0 aaaay
r0 aaaaz
r0 aaaba
r0 aaabb
r0 aaabd
r0 aaabe
r0 aaabf
r0 aaabg
r0 aaabh

