fft_systemC/trace.vcd
$date
     Feb 17, 2020       12:00:41
$end

$version
 SystemC 2.3.3-Accellera --- Jul  2 2019 15:18:47
$end

$timescale
     1 ns
$end

$scope module SystemC $end
$var wire    1  aaaaa  clk       $end
$var wire    1  aaaab  enable       $end
$scope module fft $end
$var real    1  aaaac  fifo_in_0       $end
$var real    1  aaaad  fifo_in_1       $end
$var real    1  aaaae  fifo_in_2       $end
$var real    1  aaaaf  fifo_in_3       $end
$var real    1  aaaag  fifo_in_4       $end
$var real    1  aaaah  fifo_in_5       $end
$var real    1  aaaai  fifo_in_6       $end
$var real    1  aaaaj  fifo_in_7       $end
$var real    1  aaaak  fifo_in_8       $end
$var real    1  aaaal  fifo_in_9       $end
$var real    1  aaaam  fifo_in_10       $end
$var real    1  aaaan  fifo_in_11       $end
$var real    1  aaaao  fifo_in_12       $end
$var real    1  aaaap  fifo_in_13       $end
$var real    1  aaaaq  fifo_in_14       $end
$var real    1  aaaar  fifo_in_15       $end
$var real    1  aaaas  fifo_out_0       $end
$var real    1  aaaat  fifo_out_1       $end
$var real    1  aaaau  fifo_out_2       $end
$var real    1  aaaav  fifo_out_3       $end
$var real    1  aaaaw  fifo_out_4       $end
$var real    1  aaaax  fifo_out_5       $end
$var real    1  aaaay  fifo_out_6       $end
$var real    1  aaaaz  fifo_out_7       $end
$var real    1  aaaba  fifo_out_8       $end
$var real    1  aaabb  fifo_out_9       $end
$var real    1  aaabc  fifo_out_10       $end
$var real    1  aaabd  fifo_out_11       $end
$var real    1  aaabe  fifo_out_12       $end
$var real    1  aaabf  fifo_out_13       $end
$var real    1  aaabg  fifo_out_14       $end
$var real    1  aaabh  fifo_out_15       $end
$upscope $end
$upscope $end
$enddefinitions  $end

$comment
All initial values are dumped below at time 0 sec = 0 timescale units.
$end

$dumpvars
0aaaaa
0aaaab
r0 aaaac
r0 aaaad
r6.594295324105558e+22 aaaae
r7.555081327053433e+31 aaaaf
r3.559244355763391e-17 aaaag
r1.832023514993055e+25 aaaah
r6.593495034451775e+22 aaaai
r7.555081327053433e+31 aaaaj
r-4.336870387868316e+33 aaaak
r3.078512596275191e-41 aaaal
r-4.337640386572751e+33 aaaam
r3.078512596275191e-41 aaaan
r-4.337697331814558e+33 aaaao
r3.078512596275191e-41 aaaap
r-4.338442571718208e+33 aaaaq
r3.078512596275191e-41 aaaar
r0 aaaas
r0 aaaat
r6.594295324105558e+22 aaaau
r7.555081327053433e+31 aaaav
r3.559244355763391e-17 aaaaw
r1.832023514993055e+25 aaaax
r6.593495034451775e+22 aaaay
r7.555081327053433e+31 aaaaz
r0 aaaba
r0 aaabb
r0 aaabc
r0 aaabd
r0 aaabe
r0 aaabf
r0 aaabg
r0 aaabh
$end

#10
1aaaaa

#15
0aaaaa

#20
1aaaaa
1aaaab

#25
0aaaaa

#30
1aaaaa
r0 aaaae
r0 aaaau

#35
0aaaaa

#40
1aaaaa
r0 aaaaf
r0 aaaav

#45
0aaaaa

#50
1aaaaa
r0 aaaag
r0 aaaaw

#55
0aaaaa

#60
1aaaaa
r0 aaaah
r0 aaaax

#65
0aaaaa

#70
1aaaaa
r0 aaaai
r0 aaaay

#75
0aaaaa

#80
1aaaaa
r0 aaaaj
r0 aaaaz

#85
0aaaaa

#90
1aaaaa
r0 aaaak

#95
0aaaaa

#100
1aaaaa
r0 aaaal

#105
0aaaaa

#110
1aaaaa
r0 aaaam

#115
0aaaaa

#120
1aaaaa
r0 aaaan

#125
0aaaaa

#130
1aaaaa
r0 aaaao

#135
0aaaaa

#140
1aaaaa
r0 aaaap

#145
0aaaaa

#150
1aaaaa
r0 aaaaq

#155
0aaaaa

#160
1aaaaa
r0 aaaar

