tp_intro_systemC/ff_dir/waves.vcd
$date
     Feb 04, 2020       16:49:18
$end

$version
 SystemC 2.3.3-Accellera --- Jul  2 2019 15:18:47
$end

$timescale
     1 ns
$end

$scope module SystemC $end
$var wire    1  aaaaa  clk       $end
$var wire    1  aaaab  in1       $end
$var wire    1  aaaac  out1       $end
$var wire    1  aaaad  notclk       $end
$var wire    1  aaaae  out2       $end
$upscope $end
$enddefinitions  $end

$comment
All initial values are dumped below at time 0 sec = 0 timescale units.
$end

$dumpvars
0aaaaa
0aaaab
0aaaac
1aaaad
0aaaae
$end

#10
1aaaaa
1aaaab
0aaaad
1aaaae

#15
0aaaaa
1aaaad

#20
1aaaaa
1aaaac
0aaaad
0aaaae

#25
0aaaaa
1aaaad

#30
1aaaaa
0aaaab
0aaaad

#35
0aaaaa
1aaaad

#40
1aaaaa
0aaaac
0aaaad
1aaaae

#45
0aaaaa
1aaaad

#50
1aaaaa
1aaaab
0aaaad

#55
0aaaaa
1aaaad

#60
1aaaaa
1aaaac
0aaaad
0aaaae

#65
0aaaaa
1aaaad

#70
1aaaaa
0aaaab
0aaaad

#75
0aaaaa
1aaaad

#80
1aaaaa
0aaaac
0aaaad
1aaaae

